{
    "_id": "urn:sony:page:33464610287999164127723",
    "locale": "en_GB",
    "title": "Video Cameras for Sale | Camcorders, Action Cams &amp; Binoculars | Sony UK",
    "url": "https://www.sony.co.uk/electronics/video-cameras",
    "pageDescription": "Capture life in style with Sony video cameras. From action cams to recording binoculars, casual to broadcast quality, Sony offers a video camera for you.",
    "products": [
        "PS-LX310BT",
        "TA-ZH1ES",
        "PS-HX500"
    ],
    "body": "ideo Cameras Camcorders Action Cameras Accessories Professional Video Cameras Cinema Line Cameras Camcorders Capture memories everywhere Accessories All Products 4K Models 7 Products From casual shooting to expert capabilities, get a full range of line-ups for high-precision 4K movies. Starting at RRP £600.00 (incl. VAT) HD Models 7 Products Effortlessly capture life's moments in Full HD using a camcorder packed with thoughtful features. Starting at RRP £219.00 (incl. VAT) Action Cameras Show your proof of achievement."
}