[
    {
        "name": "home", 
        "displayName": "Support",
        "url": "https://www.sony.co.uk/electronics/support/televisions-projectors-oled-tvs-android-/kd-55af8"
    },
    {
        "name": "downloads",
        "displayName": "Downloads",
        "url": "https://www.sony.co.uk/electronics/support/televisions-projectors-oled-tvs-android-/kd-55af8#downloads"
    },
    {
        "name": "manuals",
        "displayName": "Manuals",
        "url": "https://www.sony.co.uk/electronics/support/televisions-projectors-oled-tvs-android-/kd-55af8#manuals"
    },
    {
        "name": "faqs",
        "displayName": "Questions & Answers",
        "url": "https://www.sony.co.uk/electronics/support/televisions-projectors-oled-tvs-android-/kd-55af8#faqs"
    },
    {
        "name": "tutorials",
        "displayName": "Videos & Tutorials",
        "url": "https://www.sony.co.uk/electronics/support/televisions-projectors-oled-tvs-android-/kd-55af8#tutorials"
    }
]